test_reg_wave.vcd
$date
     Dec 23, 2013       17:16:26
$end

$version
              SystemC 2.3.0-ASI --- Nov 19 2013 10:52:09
$end

$timescale
     1 ns
$end

$scope module SystemC $end
$var wire    1  aaa  clk       $end
$var wire    1  aab  write       $end
$var wire    1  aac  read       $end
$var wire    1  aad  reset       $end
$var wire    5  aaaae  r1_addr [4:0]  $end
$var wire    5  aaaaf  r2_addr [4:0]  $end
$var wire    5  aaaag  rw_addr [4:0]  $end
$var wire   32  aaaah  rw_data [31:0]  $end
$var wire   32  aaaai  r1_data [31:0]  $end
$var wire   32  aaaaj  r2_data [31:0]  $end
$upscope $end
$enddefinitions  $end

$comment
All initial values are dumped below at time 0 sec = 0 timescale units.
$end

$dumpvars
1aaa
0aab
0aac
0aad
b0 aaaae
b0 aaaaf
b0 aaaag
b0 aaaah
bXXXXXXXXXXXXXXXXXXXXXXXXXXXXXXXX aaaai
bXXXXXXXXXXXXXXXXXXXXXXXXXXXXXXXX aaaaj
$end

#0
1aad
b0X aaaah

#500
0aaa

#1000
1aaa
1aab
0aad
b11111111111111111111111111111111 aaaah

#1500
0aaa

#2000
1aaa
0aab
1aac
b1101 aaaah
b11111111111111111111111111111111 aaaai
b11111111111111111111111111111111 aaaaj

#2500
0aaa

#3000
1aaa
1aab
0aac
b1000000011000000001100 aaaah
bXXXXXXXXXXXXXXXXXXXXXXXXXXXXXXXX aaaai
bXXXXXXXXXXXXXXXXXXXXXXXXXXXXXXXX aaaaj

#3500
0aaa

#4000
1aaa
0aab
1aac
b11111110001111111111111111111111 aaaah
b1000000011000000001100 aaaai
b1000000011000000001100 aaaaj

#4500
0aaa

#5000
1aaa
1aab
0aac
b1 aaaag
b11111111111111111111111111111111 aaaah
bXXXXXXXXXXXXXXXXXXXXXXXXXXXXXXXX aaaai
bXXXXXXXXXXXXXXXXXXXXXXXXXXXXXXXX aaaaj

#5500
0aaa

#6000
1aaa
0aab
1aac
b1 aaaae
b1 aaaaf
b0 aaaag
b1101 aaaah
b11111111111111111111111111111111 aaaai
b11111111111111111111111111111111 aaaaj

#6500
0aaa

#7000
1aaa
1aab
0aac
b0 aaaae
b0 aaaaf
b10 aaaag
b11111111111111111111111111111111 aaaah
bXXXXXXXXXXXXXXXXXXXXXXXXXXXXXXXX aaaai
bXXXXXXXXXXXXXXXXXXXXXXXXXXXXXXXX aaaaj

#7500
0aaa

#8000
1aaa
0aab
1aac
b10 aaaae
b10 aaaaf
b0 aaaag
b1101 aaaah
b11111111111111111111111111111111 aaaai
b11111111111111111111111111111111 aaaaj

#8500
0aaa

#9000
1aaa
1aab
0aac
b0 aaaae
b0 aaaaf
b11 aaaag
b11111111111111111111111111111111 aaaah
bXXXXXXXXXXXXXXXXXXXXXXXXXXXXXXXX aaaai
bXXXXXXXXXXXXXXXXXXXXXXXXXXXXXXXX aaaaj

#9500
0aaa

#10000
1aaa
0aab
1aac
b11 aaaae
b11 aaaaf
b0 aaaag
b1101 aaaah
b11111111111111111111111111111111 aaaai
b11111111111111111111111111111111 aaaaj

#10500
0aaa

#11000
1aaa
1aab
0aac
b0 aaaae
b0 aaaaf
b100 aaaag
b11111111111111111111111111111111 aaaah
bXXXXXXXXXXXXXXXXXXXXXXXXXXXXXXXX aaaai
bXXXXXXXXXXXXXXXXXXXXXXXXXXXXXXXX aaaaj

#11500
0aaa

#12000
1aaa
0aab
1aac
b100 aaaae
b100 aaaaf
b0 aaaag
b1101 aaaah
b11111111111111111111111111111111 aaaai
b11111111111111111111111111111111 aaaaj

#12500
0aaa

#13000
1aaa
1aab
0aac
b0 aaaae
b0 aaaaf
b101 aaaag
b11111111111111111111111111111111 aaaah
bXXXXXXXXXXXXXXXXXXXXXXXXXXXXXXXX aaaai
bXXXXXXXXXXXXXXXXXXXXXXXXXXXXXXXX aaaaj

#13500
0aaa

#14000
1aaa
0aab
1aac
b101 aaaae
b101 aaaaf
b0 aaaag
b1101 aaaah
b11111111111111111111111111111111 aaaai
b11111111111111111111111111111111 aaaaj

#14500
0aaa

#15000
1aaa
1aab
0aac
b0 aaaae
b0 aaaaf
b110 aaaag
b11111111111111111111111111111111 aaaah
bXXXXXXXXXXXXXXXXXXXXXXXXXXXXXXXX aaaai
bXXXXXXXXXXXXXXXXXXXXXXXXXXXXXXXX aaaaj

#15500
0aaa

#16000
1aaa
0aab
1aac
b110 aaaae
b110 aaaaf
b0 aaaag
b1101 aaaah
b11111111111111111111111111111111 aaaai
b11111111111111111111111111111111 aaaaj

#16500
0aaa

#17000
1aaa
1aab
0aac
b0 aaaae
b0 aaaaf
b111 aaaag
b11111111111111111111111111111111 aaaah
bXXXXXXXXXXXXXXXXXXXXXXXXXXXXXXXX aaaai
bXXXXXXXXXXXXXXXXXXXXXXXXXXXXXXXX aaaaj

#17500
0aaa

#18000
1aaa
0aab
1aac
b111 aaaae
b111 aaaaf
b0 aaaag
b1101 aaaah
b11111111111111111111111111111111 aaaai
b11111111111111111111111111111111 aaaaj

#18500
0aaa

#19000
1aaa
1aab
0aac
b0 aaaae
b0 aaaaf
b1000 aaaag
b11111111111111111111111111111111 aaaah
bXXXXXXXXXXXXXXXXXXXXXXXXXXXXXXXX aaaai
bXXXXXXXXXXXXXXXXXXXXXXXXXXXXXXXX aaaaj

#19500
0aaa

#20000
1aaa
0aab
1aac
b1000 aaaae
b1000 aaaaf
b0 aaaag
b1101 aaaah
b11111111111111111111111111111111 aaaai
b11111111111111111111111111111111 aaaaj

#20500
0aaa

#21000
1aaa
1aab
0aac
b0 aaaae
b0 aaaaf
b1001 aaaag
b11111111111111111111111111111111 aaaah
bXXXXXXXXXXXXXXXXXXXXXXXXXXXXXXXX aaaai
bXXXXXXXXXXXXXXXXXXXXXXXXXXXXXXXX aaaaj

#21500
0aaa

#22000
1aaa
0aab
1aac
b1001 aaaae
b1001 aaaaf
b0 aaaag
b1101 aaaah
b11111111111111111111111111111111 aaaai
b11111111111111111111111111111111 aaaaj

#22500
0aaa

#23000
1aaa
1aab
0aac
b0 aaaae
b0 aaaaf
b1010 aaaag
b11111111111111111111111111111111 aaaah
bXXXXXXXXXXXXXXXXXXXXXXXXXXXXXXXX aaaai
bXXXXXXXXXXXXXXXXXXXXXXXXXXXXXXXX aaaaj

#23500
0aaa

#24000
1aaa
0aab
1aac
b1010 aaaae
b1010 aaaaf
b0 aaaag
b1101 aaaah
b11111111111111111111111111111111 aaaai
b11111111111111111111111111111111 aaaaj

#24500
0aaa

#25000
1aaa
1aab
0aac
b0 aaaae
b0 aaaaf
b1011 aaaag
b11111111111111111111111111111111 aaaah
bXXXXXXXXXXXXXXXXXXXXXXXXXXXXXXXX aaaai
bXXXXXXXXXXXXXXXXXXXXXXXXXXXXXXXX aaaaj

#25500
0aaa

#26000
1aaa
0aab
1aac
b1011 aaaae
b1011 aaaaf
b0 aaaag
b1101 aaaah
b11111111111111111111111111111111 aaaai
b11111111111111111111111111111111 aaaaj

#26500
0aaa

#27000
1aaa
1aab
0aac
b0 aaaae
b0 aaaaf
b1100 aaaag
b11111111111111111111111111111111 aaaah
bXXXXXXXXXXXXXXXXXXXXXXXXXXXXXXXX aaaai
bXXXXXXXXXXXXXXXXXXXXXXXXXXXXXXXX aaaaj

#27500
0aaa

#28000
1aaa
0aab
1aac
b1100 aaaae
b1100 aaaaf
b0 aaaag
b1101 aaaah
b11111111111111111111111111111111 aaaai
b11111111111111111111111111111111 aaaaj

#28500
0aaa

#29000
1aaa
1aab
0aac
b0 aaaae
b0 aaaaf
b1101 aaaag
b11111111111111111111111111111111 aaaah
bXXXXXXXXXXXXXXXXXXXXXXXXXXXXXXXX aaaai
bXXXXXXXXXXXXXXXXXXXXXXXXXXXXXXXX aaaaj

#29500
0aaa

#30000
1aaa
0aab
1aac
b1101 aaaae
b1101 aaaaf
b0 aaaag
b1101 aaaah
b11111111111111111111111111111111 aaaai
b11111111111111111111111111111111 aaaaj

#30500
0aaa

#31000
1aaa
1aab
0aac
b0 aaaae
b0 aaaaf
b1110 aaaag
b11111111111111111111111111111111 aaaah
bXXXXXXXXXXXXXXXXXXXXXXXXXXXXXXXX aaaai
bXXXXXXXXXXXXXXXXXXXXXXXXXXXXXXXX aaaaj

#31500
0aaa

#32000
1aaa
0aab
1aac
b1110 aaaae
b1110 aaaaf
b0 aaaag
b1101 aaaah
b11111111111111111111111111111111 aaaai
b11111111111111111111111111111111 aaaaj

#32500
0aaa

#33000
1aaa
1aab
0aac
b0 aaaae
b0 aaaaf
b1111 aaaag
b11111111111111111111111111111111 aaaah
bXXXXXXXXXXXXXXXXXXXXXXXXXXXXXXXX aaaai
bXXXXXXXXXXXXXXXXXXXXXXXXXXXXXXXX aaaaj

#33500
0aaa

#34000
1aaa
0aab
1aac
b1111 aaaae
b1111 aaaaf
b0 aaaag
b1101 aaaah
b11111111111111111111111111111111 aaaai
b11111111111111111111111111111111 aaaaj

#34500
0aaa

#35000
1aaa
1aab
0aac
b0 aaaae
b0 aaaaf
b10000 aaaag
b11111111111111111111111111111111 aaaah
bXXXXXXXXXXXXXXXXXXXXXXXXXXXXXXXX aaaai
bXXXXXXXXXXXXXXXXXXXXXXXXXXXXXXXX aaaaj

#35500
0aaa

#36000
1aaa
0aab
1aac
b10000 aaaae
b10000 aaaaf
b0 aaaag
b1101 aaaah
b11111111111111111111111111111111 aaaai
b11111111111111111111111111111111 aaaaj

#36500
0aaa

#37000
1aaa
1aab
0aac
b0 aaaae
b0 aaaaf
b10001 aaaag
b11111111111111111111111111111111 aaaah
bXXXXXXXXXXXXXXXXXXXXXXXXXXXXXXXX aaaai
bXXXXXXXXXXXXXXXXXXXXXXXXXXXXXXXX aaaaj

#37500
0aaa

#38000
1aaa
0aab
1aac
b10001 aaaae
b10001 aaaaf
b0 aaaag
b1101 aaaah
b11111111111111111111111111111111 aaaai
b11111111111111111111111111111111 aaaaj

#38500
0aaa

#39000
1aaa
1aab
0aac
b0 aaaae
b0 aaaaf
b10010 aaaag
b11111111111111111111111111111111 aaaah
bXXXXXXXXXXXXXXXXXXXXXXXXXXXXXXXX aaaai
bXXXXXXXXXXXXXXXXXXXXXXXXXXXXXXXX aaaaj

#39500
0aaa

#40000
1aaa
0aab
1aac
b10010 aaaae
b10010 aaaaf
b0 aaaag
b1101 aaaah
b11111111111111111111111111111111 aaaai
b11111111111111111111111111111111 aaaaj

#40500
0aaa

#41000
1aaa
1aab
0aac
b0 aaaae
b0 aaaaf
b10011 aaaag
b11111111111111111111111111111111 aaaah
bXXXXXXXXXXXXXXXXXXXXXXXXXXXXXXXX aaaai
bXXXXXXXXXXXXXXXXXXXXXXXXXXXXXXXX aaaaj

#41500
0aaa

#42000
1aaa
0aab
1aac
b10011 aaaae
b10011 aaaaf
b0 aaaag
b1101 aaaah
b11111111111111111111111111111111 aaaai
b11111111111111111111111111111111 aaaaj

#42500
0aaa

#43000
1aaa
1aab
0aac
b0 aaaae
b0 aaaaf
b10100 aaaag
b11111111111111111111111111111111 aaaah
bXXXXXXXXXXXXXXXXXXXXXXXXXXXXXXXX aaaai
bXXXXXXXXXXXXXXXXXXXXXXXXXXXXXXXX aaaaj

#43500
0aaa

#44000
1aaa
0aab
1aac
b10100 aaaae
b10100 aaaaf
b0 aaaag
b1101 aaaah
b11111111111111111111111111111111 aaaai
b11111111111111111111111111111111 aaaaj

#44500
0aaa

#45000
1aaa
1aab
0aac
b0 aaaae
b0 aaaaf
b10101 aaaag
b11111111111111111111111111111111 aaaah
bXXXXXXXXXXXXXXXXXXXXXXXXXXXXXXXX aaaai
bXXXXXXXXXXXXXXXXXXXXXXXXXXXXXXXX aaaaj

#45500
0aaa

#46000
1aaa
0aab
1aac
b10101 aaaae
b10101 aaaaf
b0 aaaag
b1101 aaaah
b11111111111111111111111111111111 aaaai
b11111111111111111111111111111111 aaaaj

#46500
0aaa

#47000
1aaa
1aab
0aac
b0 aaaae
b0 aaaaf
b10110 aaaag
b11111111111111111111111111111111 aaaah
bXXXXXXXXXXXXXXXXXXXXXXXXXXXXXXXX aaaai
bXXXXXXXXXXXXXXXXXXXXXXXXXXXXXXXX aaaaj

#47500
0aaa

#48000
1aaa
0aab
1aac
b10110 aaaae
b10110 aaaaf
b0 aaaag
b1101 aaaah
b11111111111111111111111111111111 aaaai
b11111111111111111111111111111111 aaaaj

#48500
0aaa

#49000
1aaa
1aab
0aac
b0 aaaae
b0 aaaaf
b10111 aaaag
b11111111111111111111111111111111 aaaah
bXXXXXXXXXXXXXXXXXXXXXXXXXXXXXXXX aaaai
bXXXXXXXXXXXXXXXXXXXXXXXXXXXXXXXX aaaaj

#49500
0aaa

#50000
1aaa
0aab
1aac
b10111 aaaae
b10111 aaaaf
b0 aaaag
b1101 aaaah
b11111111111111111111111111111111 aaaai
b11111111111111111111111111111111 aaaaj

#50500
0aaa

#51000
1aaa
1aab
0aac
b0 aaaae
b0 aaaaf
b11000 aaaag
b11111111111111111111111111111111 aaaah
bXXXXXXXXXXXXXXXXXXXXXXXXXXXXXXXX aaaai
bXXXXXXXXXXXXXXXXXXXXXXXXXXXXXXXX aaaaj

#51500
0aaa

#52000
1aaa
0aab
1aac
b11000 aaaae
b11000 aaaaf
b0 aaaag
b1101 aaaah
b11111111111111111111111111111111 aaaai
b11111111111111111111111111111111 aaaaj

#52500
0aaa

#53000
1aaa
1aab
0aac
b0 aaaae
b0 aaaaf
b11001 aaaag
b11111111111111111111111111111111 aaaah
bXXXXXXXXXXXXXXXXXXXXXXXXXXXXXXXX aaaai
bXXXXXXXXXXXXXXXXXXXXXXXXXXXXXXXX aaaaj

#53500
0aaa

#54000
1aaa
0aab
1aac
b11001 aaaae
b11001 aaaaf
b0 aaaag
b1101 aaaah
b11111111111111111111111111111111 aaaai
b11111111111111111111111111111111 aaaaj

#54500
0aaa

#55000
1aaa
1aab
0aac
b0 aaaae
b0 aaaaf
b11010 aaaag
b11111111111111111111111111111111 aaaah
bXXXXXXXXXXXXXXXXXXXXXXXXXXXXXXXX aaaai
bXXXXXXXXXXXXXXXXXXXXXXXXXXXXXXXX aaaaj

#55500
0aaa

#56000
1aaa
0aab
1aac
b11010 aaaae
b11010 aaaaf
b0 aaaag
b1101 aaaah
b11111111111111111111111111111111 aaaai
b11111111111111111111111111111111 aaaaj

#56500
0aaa

#57000
1aaa
1aab
0aac
b0 aaaae
b0 aaaaf
b11011 aaaag
b11111111111111111111111111111111 aaaah
bXXXXXXXXXXXXXXXXXXXXXXXXXXXXXXXX aaaai
bXXXXXXXXXXXXXXXXXXXXXXXXXXXXXXXX aaaaj

#57500
0aaa

#58000
1aaa
0aab
1aac
b11011 aaaae
b11011 aaaaf
b0 aaaag
b1101 aaaah
b11111111111111111111111111111111 aaaai
b11111111111111111111111111111111 aaaaj

#58500
0aaa

#59000
1aaa
1aab
0aac
b0 aaaae
b0 aaaaf
b11100 aaaag
b11111111111111111111111111111111 aaaah
bXXXXXXXXXXXXXXXXXXXXXXXXXXXXXXXX aaaai
bXXXXXXXXXXXXXXXXXXXXXXXXXXXXXXXX aaaaj

#59500
0aaa

#60000
1aaa
0aab
1aac
b11100 aaaae
b11100 aaaaf
b0 aaaag
b1101 aaaah
b11111111111111111111111111111111 aaaai
b11111111111111111111111111111111 aaaaj

#60500
0aaa

#61000
1aaa
1aab
0aac
b0 aaaae
b0 aaaaf
b11101 aaaag
b11111111111111111111111111111111 aaaah
bXXXXXXXXXXXXXXXXXXXXXXXXXXXXXXXX aaaai
bXXXXXXXXXXXXXXXXXXXXXXXXXXXXXXXX aaaaj

#61500
0aaa

#62000
1aaa
0aab
1aac
b11101 aaaae
b11101 aaaaf
b0 aaaag
b1101 aaaah
b11111111111111111111111111111111 aaaai
b11111111111111111111111111111111 aaaaj

#62500
0aaa

#63000
1aaa
1aab
0aac
b0 aaaae
b0 aaaaf
b11110 aaaag
b11111111111111111111111111111111 aaaah
bXXXXXXXXXXXXXXXXXXXXXXXXXXXXXXXX aaaai
bXXXXXXXXXXXXXXXXXXXXXXXXXXXXXXXX aaaaj

#63500
0aaa

#64000
1aaa
0aab
1aac
b11110 aaaae
b11110 aaaaf
b0 aaaag
b1101 aaaah
b11111111111111111111111111111111 aaaai
b11111111111111111111111111111111 aaaaj

#64500
0aaa

#65000
1aaa
1aab
0aac
b0 aaaae
b0 aaaaf
b11111 aaaag
b11111111111111111111111111111111 aaaah
bXXXXXXXXXXXXXXXXXXXXXXXXXXXXXXXX aaaai
bXXXXXXXXXXXXXXXXXXXXXXXXXXXXXXXX aaaaj

#65500
0aaa

#66000
1aaa
0aab
1aac
b11111 aaaae
b11111 aaaaf
b0 aaaag
b1101 aaaah
b11111111111111111111111111111111 aaaai
b11111111111111111111111111111111 aaaaj

#66500
0aaa

#67000
1aaa
0aac
1aad
b0 aaaae
b0 aaaaf
b11111111111111111111111111111111 aaaah
bXXXXXXXXXXXXXXXXXXXXXXXXXXXXXXXX aaaai
bXXXXXXXXXXXXXXXXXXXXXXXXXXXXXXXX aaaaj

#67500
0aaa

#68000
1aaa
1aab
0aad
b1 aaaah

#68500
0aaa

#69000
1aaa
0aab
1aac
b10 aaaaf
b1101 aaaah
b1 aaaai

